1,339,1,208.625,31.844,1.656,-610.87,5.143,0,0,1732.604,11.276,0,0,TAU-A
2,339,1,208.625,31.844,1.656,-616.481,4.848,0,0,1747.28,10.602,0,0,TAU-A
5,340,1,100.277,14.541,1.671,-620.142,8.199,0,0,1731.071,18.158,0,0,VIR-A
6,340,1,100.277,14.541,1.671,-623.699,7.239,0,0,1737.927,15.108,0,0,VIR-A
9,341,1,-7.356,29.832,1.685,-613.517,4.894,0,0,1728.78,10.954,0,0,CYG-A
10,341,1,-7.356,29.832,1.685,-619.221,5.533,0,0,1732.662,12.087,0,0,CYG-A
13,342,1,-45.843,52.057,1.7,-542.341,5.076,0,0,1772.93,11.028,0,0,CAS-A
14,342,1,-45.843,52.057,1.7,-549.178,5.276,0,0,1773.668,11.484,0,0,CAS-A
17,343,1,212.416,31.503,1.716,-612.668,4.821,0,0,1730.035,10.609,0,0,TAU-A
18,343,1,212.416,31.503,1.716,-616.786,4.855,0,0,1716.793,10.437,0,0,TAU-A
21,344,1,103.73,15.196,1.732,-717.771,6.367,0,0,1678.889,13.737,0,0,VIR-A
22,344,1,103.73,15.196,1.732,-691.084,3.784,0,0,1783.358,0.209,0,0,VIR-A
25,345,1,-4.298,29.766,1.746,-572.556,4.732,0,0,1738.738,10.295,0,0,CYG-A
26,345,1,-4.298,29.766,1.746,-579.424,4.968,0,0,1740.839,10.813,0,0,CYG-A
29,346,1,-43.118,51.604,1.761,-472.123,6.506,0,0,1703.32,14.744,0,0,CAS-A
30,346,1,-43.118,51.604,1.761,-477.001,6.904,0,0,1713.088,14.971,0,0,CAS-A
33,347,1,216.068,31.137,1.775,-522.059,5.638,0,0,1710.708,12.286,0,0,TAU-A
34,347,1,216.068,31.137,1.775,-528.109,5.295,0,0,1716.604,10.96,0,0,TAU-A
37,348,1,107.113,15.821,1.791,-634.119,18.013,0,0,1727.456,39.872,0,0,VIR-A
38,348,1,107.113,15.821,1.791,-603.558,23.577,0,0,1751.774,52.284,0,0,VIR-A
41,349,1,-1.358,29.735,1.805,-640.566,5.302,0,0,1746.518,11.489,0,0,CYG-A
42,349,1,-1.358,29.735,1.805,-649.906,5.215,0,0,1757.84,11.644,0,0,CYG-A
49,351,1,219.707,30.737,1.834,-557.721,5.442,0,0,1721.453,11.913,0,0,TAU-A
50,351,1,219.707,30.737,1.834,-558.628,4.152,0,0,1713.627,8.986,0,0,TAU-A
53,352,1,110.491,16.434,1.85,-592.671,5.04,0,0,1793.566,11.198,0,0,VIR-A
54,352,1,110.491,16.434,1.85,-591.315,8.635,0,0,1764.176,18.831,0,0,VIR-A
57,353,1,1.59,29.738,1.864,-610.701,5.122,0,0,1719.746,11.133,0,0,CYG-A
58,353,1,1.59,29.738,1.864,-610.883,5.316,0,0,1734.403,11.716,0,0,CYG-A
61,354,1,-37.699,50.766,1.879,-479.293,7.125,0,0,1701.44,15.613,0,0,CAS-A
62,354,1,-37.699,50.766,1.879,-483.829,3.638,0,0,1717.731,7.93,0,0,CAS-A
65,355,1,223.304,30.306,1.893,-522.001,5.133,0,0,1709.77,11.271,0,0,TAU-A
66,355,1,223.304,30.306,1.893,-522.758,5.373,0,0,1699.324,11.926,0,0,TAU-A
69,356,1,113.89,17.035,1.909,-696.731,7.951,0,0,1720.812,17.211,0,0,VIR-A
70,356,1,113.89,17.035,1.909,-602.121,7.082,0,0,1760.145,15.755,0,0,VIR-A
73,357,1,4.551,29.774,1.923,-579.498,4.784,0,0,1738.555,0.166,0,0,CYG-A
74,357,1,4.551,29.774,1.923,-584.172,5.063,0,0,1747.469,10.857,0,0,CYG-A
77,358,1,-34.997,50.382,1.938,-508.98,5.731,0,0,1689.48,12.568,0,0,CAS-A
78,358,1,-34.997,50.382,1.938,-512.626,5.382,0,0,1704.633,12.393,0,0,CAS-A
81,359,1,226.886,29.845,1.952,-577.902,5.037,0,0,1725.772,10.904,0,0,TAU-A
82,359,1,226.886,29.845,1.952,-579.479,3.979,0,0,1709.133,8.654,0,0,TAU-A
85,360,1,117.288,17.62,1.968,-670.563,9.517,0,0,1723.14,20.674,0,0,VIR-A
86,360,1,117.288,17.62,1.968,-686.651,6.456,0,0,1797.006,14.38,0,0,VIR-A
89,361,1,7.506,29.843,1.982,-593.445,5.393,0,0,1739.251,12.033,0,0,CYG-A
90,361,1,7.506,29.843,1.982,-597.455,5.284,0,0,1742.888,11.367,0,0,CYG-A
93,362,1,-32.331,50.024,1.997,-508.287,6.033,0,0,1710.95,12.714,0,0,CAS-A
94,362,1,-32.331,50.024,1.997,-514.887,5.775,0,0,1716.092,12.53,0,0,CAS-A
97,363,1,230.448,29.357,2.011,-599.675,5.66,0,0,1716.174,12.285,0,0,TAU-A
98,363,1,230.448,29.357,2.011,-623.831,0.031,0,0,1728.245,6.765,0,0,TAU-A
101,364,1,120.717,18.187,2.027,-663.886,7.516,0,0,1723.449,16.61,0,0,VIR-A
102,364,1,120.717,18.187,2.027,-624.669,7.451,0,0,1843.632,16.775,0,0,VIR-A
105,365,1,10.45,29.946,2.041,-637.045,5.057,0,0,1757.033,11.356,0,0,CYG-A
106,365,1,10.45,29.946,2.041,-643.114,5.293,0,0,1756.25,11.609,0,0,CYG-A
109,366,1,-29.671,49.692,2.056,-501.628,5.794,0,0,1685.888,12.578,0,0,CAS-A
110,366,1,-29.671,49.692,2.056,-502.668,5.779,0,0,1699.429,12.517,0,0,CAS-A
113,367,1,233.991,28.844,2.07,-594.726,4.85,0,0,1745.018,10.607,0,0,TAU-A
114,367,1,233.991,28.844,2.07,-602.064,3.742,0,0,1738.676,8.162,0,0,TAU-A
117,368,1,124.152,18.734,2.086,-782.518,5.372,0,0,1303.621,16.998,0,0,VIR-A
118,368,1,124.152,18.734,2.086,-880.63,2.326,0,0,382.206,5.459,0,0,VIR-A
121,369,1,13.403,30.081,2.101,-526.007,5.951,0,0,1694.437,12.665,0,0,CYG-A
122,369,1,13.403,30.081,2.101,-532.919,5.767,0,0,1705.75,12.538,0,0,CYG-A
125,370,1,-27.006,49.385,2.115,-439.366,7.212,0,0,1671.92,15.376,0,0,CAS-A
126,370,1,-27.006,49.385,2.115,-444.182,7.181,0,0,1674.78,15.505,0,0,CAS-A
129,371,1,237.521,28.306,2.129,-612.82,5.007,0,0,1710.729,10.895,0,0,TAU-A
130,371,1,237.521,28.306,2.129,-615.711,5.172,0,0,1729.786,11.172,0,0,TAU-A
133,372,1,127.611,19.26,2.145,-828.684,4.576,0,0,1997.604,9.801,0,0,VIR-A
137,373,1,16.372,30.249,2.16,-656.375,4.818,0,0,1765.899,10.529,0,0,CYG-A
138,373,1,16.372,30.249,2.16,-668.108,4.901,0,0,1763.698,10.731,0,0,CYG-A
141,374,1,-24.365,49.104,2.174,-549.201,5.806,0,0,1714.963,12.551,0,0,CAS-A
142,374,1,-24.365,49.104,2.174,-551.001,5.731,0,0,1734.761,12.457,0,0,CAS-A
145,375,1,241.038,27.746,2.189,-540.971,5.488,0,0,1745.913,11.919,0,0,TAU-A
146,375,1,241.038,27.746,2.189,-551.203,4.546,0,0,1739.641,9.862,0,0,TAU-A
149,376,1,131.08,19.763,2.204,-593.434,5.787,0,0,1799.319,12.962,0,0,VIR-A
150,376,1,131.08,19.763,2.204,-544.546,5.561,0,0,1804.744,12.365,0,0,VIR-A
153,377,1,19.34,30.45,2.219,-540.047,5.551,0,0,1725.822,12.231,0,0,CYG-A
154,377,1,19.34,30.45,2.219,-550.609,5.664,0,0,1714.466,12.195,0,0,CYG-A
157,378,1,-21.71,48.851,2.234,-458.499,6.772,0,0,1704.16,14.625,0,0,CAS-A
158,378,1,-21.71,48.851,2.234,-465.326,6.74,0,0,1707.273,14.843,0,0,CAS-A
161,379,1,244.516,27.167,2.248,-558.372,5.721,0,0,1731.467,12.419,0,0,TAU-A
162,379,1,244.516,27.167,2.248,-569.125,5.82,0,0,1727.486,12.476,0,0,TAU-A
165,380,1,134.573,20.239,2.264,-653.965,6.753,0,0,1791.03,15.423,0,0,VIR-A
166,380,1,134.573,20.239,2.264,-673.117,6.37,0,0,1750.659,14.434,0,0,VIR-A
169,381,1,22.315,30.682,2.278,-582.986,5.822,0,0,1797.942,12.868,0,0,CYG-A
170,381,1,22.315,30.682,2.278,-586.247,6.369,0,0,1817.297,13.989,0,0,CYG-A
173,382,1,-19.107,48.626,2.293,-466.409,6.922,0,0,1672.979,14.76,0,0,CAS-A
174,382,1,-19.107,48.626,2.293,-471.778,6.912,0,0,1681.217,14.867,0,0,CAS-A
177,383,1,247.959,26.572,2.307,-594.695,4.797,0,0,1737.464,10.35,0,0,TAU-A
178,383,1,247.959,26.572,2.307,-635.138,5.859,0,0,1774.906,12.606,0,0,TAU-A
181,384,1,138.071,20.686,2.323,-662.642,8.005,0,0,1643.71,17.417,0,0,VIR-A
182,384,1,138.071,20.686,2.323,-670.396,7.742,0,0,1743.224,15.868,0,0,VIR-A
185,385,1,25.27,30.946,2.337,-616.981,5.177,0,0,1733.805,11.39,0,0,CYG-A
186,385,1,25.27,30.946,2.337,-620.672,5.146,0,0,1748.882,11.197,0,0,CYG-A
189,386,1,-16.472,48.429,2.352,-537.375,5.718,0,0,1727.353,12.595,0,0,CAS-A
190,386,1,-16.472,48.429,2.352,-542.458,5.25,0,0,1742.941,11.295,0,0,CAS-A
193,387,1,251.404,25.962,2.366,-619.516,3.563,0,0,1735.217,7.769,0,0,TAU-A
194,387,1,251.404,25.962,2.366,-623.99,4.927,0,0,1746.235,11.036,0,0,TAU-A
197,388,1,141.587,21.104,2.382,-664.143,5.352,0,0,1782.631,11.479,0,0,VIR-A
198,388,1,141.587,21.104,2.382,-685.029,4.246,0,0,1734.258,9.124,0,0,VIR-A
201,389,1,28.253,31.24,2.396,-554.06,3.951,0,0,1734.689,8.232,0,0,CYG-A
202,389,1,28.253,31.24,2.396,-566.357,5.883,0,0,1735.632,12.804,0,0,CYG-A
205,390,1,-13.85,48.261,2.411,-413.485,8.054,0,0,1694.025,17.226,0,0,CAS-A
206,390,1,-13.85,48.261,2.411,-416.271,6.84,0,0,1704.626,14.717,0,0,CAS-A
209,391,1,254.828,25.339,2.425,-645.338,5.075,0,0,1760.887,11.395,0,0,TAU-A
210,391,1,254.828,25.339,2.425,-650.476,5.206,0,0,1757.539,11.273,0,0,TAU-A
213,392,1,145.121,21.492,2.441,-644.947,8.429,0,0,1817.03,18.845,0,0,VIR-A
214,392,1,145.121,21.492,2.441,-688.681,9.473,0,0,1761.583,20.832,0,0,VIR-A
217,393,1,31.237,31.564,2.456,-630.078,5.482,0,0,1754.088,12.023,0,0,CYG-A
218,393,1,31.237,31.564,2.456,-635.139,5.197,0,0,1741.301,11.233,0,0,CYG-A
221,394,1,-11.229,48.121,2.47,-490.636,6.851,0,0,1656.802,15.061,0,0,CAS-A
222,394,1,-11.229,48.121,2.47,-490.195,7.131,0,0,1659.944,15.119,0,0,CAS-A
225,395,1,258.23,24.706,2.485,-557.439,5.301,0,0,1724.983,11.467,0,0,TAU-A
226,395,1,258.23,24.706,2.485,-559.574,5.587,0,0,1734.155,12.209,0,0,TAU-A
233,397,1,34.23,31.917,2.515,-614.913,5.407,0,0,1722.8,11.361,0,0,CYG-A
234,397,1,34.23,31.917,2.515,-619.754,5.115,0,0,1725.578,11.295,0,0,CYG-A
237,398,1,-8.595,48.011,2.53,-490.364,7.275,0,0,1696.291,15.928,0,0,CAS-A
238,398,1,-8.595,48.011,2.53,-495.597,3.699,0,0,1708.969,7.966,0,0,CAS-A
241,399,1,261.619,24.064,2.544,-571.26,4.751,0,0,1765.401,10.345,0,0,TAU-A
242,399,1,261.619,24.064,2.544,-576.046,14.433,0,0,1619.758,30.223,0,0,TAU-A
245,400,1,152.237,22.166,2.56,-566.33,7.795,0,0,1788.208,17.376,0,0,VIR-A
246,400,1,152.237,22.166,2.56,-602.032,4.904,0,0,1719.363,10.573,0,0,VIR-A
249,401,1,37.231,32.298,2.574,-620.554,5.33,0,0,1742.738,12.061,0,0,CYG-A
250,401,1,37.231,32.298,2.574,-627.134,5.32,0,0,1749.186,11.666,0,0,CYG-A
253,402,1,-5.957,47.93,2.589,-431.198,7.116,0,0,1694.007,15.229,0,0,CAS-A
254,402,1,-5.957,47.93,2.589,-437.422,7.179,0,0,1704.819,15.341,0,0,CAS-A
257,403,1,264.981,23.417,2.603,-637.68,5.391,0,0,1720.88,12.441,0,0,TAU-A
258,403,1,264.981,23.417,2.603,-642.862,5.558,0,0,1741.556,11.904,0,0,TAU-A
261,404,1,155.812,22.451,2.619,-600.687,17.636,0,0,1562.828,37.262,0,0,VIR-A
262,404,1,155.812,22.451,2.619,-573.142,8.965,0,0,1703.404,19.188,0,0,VIR-A
265,405,1,40.233,32.707,2.633,-585.061,3.942,0,0,1738.171,8.435,0,0,CYG-A
266,405,1,40.233,32.707,2.633,-587.549,4.443,0,0,1765.434,9.536,0,0,CYG-A
269,406,1,-3.37,47.878,2.648,-455.865,7.414,0,0,1694.366,15.506,0,0,CAS-A
270,406,1,-3.37,47.878,2.648,-462.75,6.799,0,0,1705.415,14.907,0,0,CAS-A
273,407,1,268.338,22.767,2.662,-656.321,4.971,0,0,1793.716,11.077,0,0,TAU-A
274,407,1,268.338,22.767,2.662,-659.467,5.087,0,0,1780.094,11.364,0,0,TAU-A
278,408,1,159.392,22.698,2.678,-492.829,61.893,0,0,2093.058,150.08,0,0,VIR-A
281,409,1,43.274,33.141,2.693,-588.677,6.253,0,0,1688.657,13.265,0,0,CYG-A
282,409,1,43.274,33.141,2.693,-595.956,4.984,0,0,1704.834,11.031,0,0,CYG-A
287,411,1,271.668,22.117,2.722,-580.01,6.41,0,0,1702.247,14.159,0,0,TAU-A
288,411,1,271.668,22.117,2.722,-585.942,4.067,0,0,1713.881,8.934,0,0,TAU-A
291,412,1,162.976,22.906,2.737,-641.295,5.151,0,0,1747.312,11.786,0,0,VIR-A
292,412,1,162.976,22.906,2.737,-630.033,10.192,0,0,1803.451,23.654,0,0,VIR-A
295,413,1,46.286,33.6,2.752,-618.789,5.274,0,0,1737.247,11.519,0,0,CYG-A
296,413,1,46.286,33.6,2.752,-625.103,5.208,0,0,1746.215,11.699,0,0,CYG-A
299,414,1,1.856,47.864,2.767,-442.27,7.156,0,0,1692.553,15.26,0,0,CAS-A
300,414,1,1.856,47.864,2.767,-443.607,7.007,0,0,1700.073,14.98,0,0,CAS-A
303,415,1,274.978,21.466,2.781,-671.806,5.067,0,0,1735.015,11.245,0,0,TAU-A
304,415,1,274.978,21.466,2.781,-678.562,5.546,0,0,1741.704,12.344,0,0,TAU-A
307,416,1,166.574,23.076,2.797,-582.961,5.072,0,0,1721.049,11.137,0,0,VIR-A
308,416,1,166.574,23.076,2.797,-600.723,7.065,0,0,1678.231,15.643,0,0,VIR-A
311,417,1,49.331,34.084,2.811,-546.297,10.294,0,0,1750.862,22.463,0,0,CYG-A
312,417,1,49.331,34.084,2.811,-531.489,10.19,0,0,1844.488,22.582,0,0,CYG-A
315,418,1,4.466,47.902,2.826,-445.795,7.18,0,0,1711.037,15.426,0,0,CAS-A
316,418,1,4.466,47.902,2.826,-449.616,7.656,0,0,1712.053,16.287,0,0,CAS-A
319,419,1,278.286,20.819,2.84,-648.876,4.878,0,0,1725.952,10.619,0,0,TAU-A
320,419,1,278.286,20.819,2.84,-655.421,4.788,0,0,1737.62,10.383,0,0,TAU-A
323,420,1,170.195,23.206,2.856,-536.945,4.958,0,0,1841.202,11.158,0,0,VIR-A
324,420,1,170.195,23.206,2.856,-574.004,8.39,0,0,1767.461,18.373,0,0,VIR-A
327,421,1,52.375,34.59,2.871,-594.643,5.556,0,0,1721.67,11.9,0,0,CYG-A
328,421,1,52.375,34.59,2.871,-599.295,5.109,0,0,1745.43,10.818,0,0,CYG-A
331,422,1,7.079,47.969,2.885,-534.644,5.797,0,0,1718.081,12.658,0,0,CAS-A
332,422,1,7.079,47.969,2.885,-537.964,5.882,0,0,1719.533,12.706,0,0,CAS-A
335,423,1,281.576,20.179,2.899,-581.684,15.523,0,0,1676.628,33.425,0,0,TAU-A
339,424,1,173.792,23.296,2.915,-604.206,5.939,0,0,1762.855,12.949,0,0,VIR-A
340,424,1,173.792,23.296,2.915,-625.788,7.595,0,0,1788.313,16.968,0,0,VIR-A
343,425,1,55.441,35.117,2.93,-587.196,5.032,0,0,1718.262,10.831,0,0,CYG-A
344,425,1,55.441,35.117,2.93,-591.398,5.156,0,0,1727.834,10.827,0,0,CYG-A
347,426,1,9.708,48.066,2.944,-453.282,7.142,0,0,1695.863,15.187,0,0,CAS-A
348,426,1,9.708,48.066,2.944,-456.413,7.152,0,0,1695.766,15.159,0,0,CAS-A
351,427,1,284.859,19.545,2.959,-577.083,20.139,0,0,1583.575,41.137,0,0,TAU-A
352,427,1,284.859,19.545,2.959,-594.632,11.254,0,0,1818.683,25.964,0,0,TAU-A
355,428,1,177.415,23.344,2.974,-603.792,8.11,0,0,1705.848,16.087,0,0,VIR-A
356,428,1,177.415,23.344,2.974,-579.876,6.517,0,0,1739.424,14.164,0,0,VIR-A
359,429,1,58.534,35.664,2.989,-548.985,5.999,0,0,1719.136,12.804,0,0,CYG-A
360,429,1,58.534,35.664,2.989,-550.711,5.72,0,0,1731.675,12.737,0,0,CYG-A
363,430,1,12.326,48.192,3.004,-443.98,7.308,0,0,1692.846,15.608,0,0,CAS-A
364,430,1,12.326,48.192,3.004,-449.404,6.863,0,0,1706.304,14.813,0,0,CAS-A
367,431,1,288.136,18.921,3.018,-611.78,5.25,0,0,1748.057,11.283,0,0,TAU-A
368,431,1,288.136,18.921,3.018,-622.339,5.604,0,0,1750.468,12.329,0,0,TAU-A
371,432,1,181.031,23.352,3.034,-573.896,8.459,0,0,1742.869,18.192,0,0,VIR-A
372,432,1,181.031,23.352,3.034,-584.017,9.83,0,0,1687.335,21.474,0,0,VIR-A
375,433,1,61.632,36.229,3.048,-566.916,5.274,0,0,1760.202,11.702,0,0,CYG-A
376,433,1,61.632,36.229,3.048,-571.875,5.128,0,0,1774.18,11.371,0,0,CYG-A
379,434,1,14.944,48.347,3.063,-523.09,5.662,0,0,1688.741,12.37,0,0,CAS-A
380,434,1,14.944,48.347,3.063,-527.164,5.462,0,0,1702.347,11.985,0,0,CAS-A
383,435,1,291.382,18.306,3.077,-615.484,11.805,0,0,1724.71,26.298,0,0,TAU-A
384,435,1,291.382,18.306,3.077,-573.448,26.024,0,0,1772.658,59.906,0,0,TAU-A
387,436,1,184.644,23.318,3.093,-623.868,5.527,0,0,1707.656,11.468,0,0,VIR-A
388,436,1,184.644,23.318,3.093,-627.747,8.82,0,0,1715.065,18.602,0,0,VIR-A
391,437,1,64.754,36.812,3.108,-521.498,5.95,0,0,1685.999,13.292,0,0,CYG-A
392,437,1,64.754,36.812,3.108,-528.815,5.693,0,0,1693.212,12.356,0,0,CYG-A
395,438,1,17.57,48.531,3.122,-514.174,6.007,0,0,1707.279,12.913,0,0,CAS-A
396,438,1,17.57,48.531,3.122,-518.554,5.76,0,0,1713.221,12.717,0,0,CAS-A
399,439,1,294.647,17.708,3.137,-638.228,5.187,0,0,1759.549,11.5,0,0,TAU-A
400,439,1,294.647,17.708,3.137,-646.232,4.33,0,0,1756.237,9.539,0,0,TAU-A
403,440,1,188.263,23.244,3.152,-502.796,21.371,0,0,1975.32,46.895,0,0,VIR-A
404,440,1,188.263,23.244,3.152,-550.437,18.652,0,0,1660.598,38.061,0,0,VIR-A
407,441,1,67.874,37.41,3.167,-591.06,5.587,0,0,1728.552,12.145,0,0,CYG-A
408,441,1,67.874,37.41,3.167,-601.363,5.5,0,0,1731.895,11.781,0,0,CYG-A
411,442,1,20.201,48.744,3.182,-497.746,5.76,0,0,1711.552,12.378,0,0,CAS-A
412,442,1,20.201,48.744,3.182,-502.057,5.687,0,0,1714.967,12.272,0,0,CAS-A
415,443,1,297.888,17.124,3.196,-603.087,4.863,0,0,1740.101,10.475,0,0,TAU-A
416,443,1,297.888,17.124,3.196,-607.162,5.44,0,0,1758.787,11.893,0,0,TAU-A
419,444,1,191.871,23.129,3.212,-677.425,5.147,0,0,1743.96,11.18,0,0,VIR-A
420,444,1,191.871,23.129,3.212,-686.456,7.073,0,0,1691.019,15.495,0,0,VIR-A
423,445,1,71.045,38.021,3.226,-589.61,5.295,0,0,1705.957,11.514,0,0,CYG-A
424,445,1,71.045,38.021,3.226,-592.305,5.109,0,0,1718.34,11.065,0,0,CYG-A
427,446,1,22.839,48.985,3.241,-402.292,8.036,0,0,1699.438,17.29,0,0,CAS-A
428,446,1,22.839,48.985,3.241,-405.837,7.552,0,0,1715.607,16.199,0,0,CAS-A
431,447,1,-58.872,16.556,3.255,-690.205,5.456,0,0,1761.322,11.991,0,0,TAU-A
432,447,1,-58.872,16.556,3.255,-698.012,5.26,0,0,1756.264,11.543,0,0,TAU-A
435,448,1,195.545,22.97,3.271,-601.862,3.523,0,0,1754.737,7.621,0,0,VIR-A
436,448,1,195.545,22.97,3.271,-588.731,6.872,0,0,1745.053,14.772,0,0,VIR-A
439,449,1,74.287,38.654,3.287,-573.401,5.57,0,0,1703.417,12.167,0,0,CYG-A
440,449,1,74.287,38.654,3.287,-577.888,5.134,0,0,1718.215,11.391,0,0,CYG-A
443,450,1,25.556,49.259,3.302,-420.854,7.292,0,0,1685.513,15.714,0,0,CAS-A
444,450,1,25.556,49.259,3.302,-426.028,7.17,0,0,1701.518,15.433,0,0,CAS-A
447,451,1,-55.584,15.998,3.316,-638.081,5.284,0,0,1754.236,11.566,0,0,TAU-A
448,451,1,-55.584,15.998,3.316,-645.456,4.451,0,0,1757.176,10.424,0,0,TAU-A
451,452,1,199.207,22.771,3.332,-549.408,6.8,0,0,1785.474,14.856,0,0,VIR-A
452,452,1,199.207,22.771,3.332,-570.529,6.702,0,0,1764.391,14.975,0,0,VIR-A
455,453,1,77.551,39.299,3.347,-568.757,6.209,0,0,1691.245,13.481,0,0,CYG-A
456,453,1,77.551,39.299,3.347,-576.566,4.972,0,0,1696.85,10.789,0,0,CYG-A
459,454,1,28.263,49.561,3.362,-487.31,9.137,0,0,1815.133,20.263,0,0,CAS-A
460,454,1,28.263,49.561,3.362,-486.184,42.199,0,0,1862.01,96.104,0,0,CAS-A
463,455,1,-52.287,15.463,3.376,-717.056,5.918,0,0,1752.404,13.164,0,0,TAU-A
464,455,1,-52.287,15.463,3.376,-685.413,12.343,0,0,1896.933,29.182,0,0,TAU-A
467,456,1,202.871,22.532,3.392,-591.251,6.758,0,0,1705.315,14.624,0,0,VIR-A
468,456,1,202.871,22.532,3.392,-587.038,8.969,0,0,1795.025,20.041,0,0,VIR-A
471,457,1,80.834,39.951,3.408,-471.232,3.44,0,0,1710.019,7.409,0,0,CYG-A
472,457,1,80.834,39.951,3.408,-465.757,6.604,0,0,1702.634,14.121,0,0,CYG-A
475,458,1,30.984,49.89,3.422,-426.658,7.246,0,0,1669.971,15.585,0,0,CAS-A
476,458,1,30.984,49.89,3.422,-433.767,7.177,0,0,1677.76,15.315,0,0,CAS-A
479,459,1,-48.999,14.951,3.437,-609.641,6.068,0,0,1735.19,13.388,0,0,TAU-A
480,459,1,-48.999,14.951,3.437,-618.446,5.496,0,0,1715.351,12.111,0,0,TAU-A
487,461,1,84.167,40.609,3.468,-547.504,5.78,0,0,1712.955,12.488,0,0,CYG-A
488,461,1,84.167,40.609,3.468,-552,5.681,0,0,1729.492,12.419,0,0,CYG-A
491,462,1,33.696,50.246,3.483,-506.807,6.455,0,0,1740.735,14.362,0,0,CAS-A
492,462,1,33.696,50.246,3.483,-523.01,6.089,0,0,1715.942,12.482,0,0,CAS-A
495,463,1,-45.727,14.464,3.497,-600.095,4.968,0,0,1730.342,10.812,0,0,TAU-A
496,463,1,-45.727,14.464,3.497,-609.188,5.373,0,0,1726.529,12.181,0,0,TAU-A
499,464,1,210.128,21.938,3.513,-654.98,7.496,0,0,1770.069,15.601,0,0,VIR-A
500,464,1,210.128,21.938,3.513,-640.666,20.133,0,0,1589.435,42.107,0,0,VIR-A
503,465,1,87.527,41.27,3.528,-537.176,6.874,0,0,1669.164,14.781,0,0,CYG-A
504,465,1,87.527,41.27,3.528,-545.842,6.241,0,0,1690.22,13.473,0,0,CYG-A
507,466,1,36.425,50.629,3.543,-464.517,8.429,0,0,1739.574,18.792,0,0,CAS-A
508,466,1,36.425,50.629,3.543,-468.161,5.727,0,0,1710.452,12.48,0,0,CAS-A
511,467,1,-42.539,14.013,3.557,-681.963,5.954,0,0,1766.817,13.37,0,0,TAU-A
512,467,1,-42.539,14.013,3.557,-690.458,5.719,0,0,1765.927,12.721,0,0,TAU-A
515,468,1,213.67,21.594,3.572,-656.413,6.218,0,0,1736.398,13.237,0,0,VIR-A
516,468,1,213.67,21.594,3.572,-668.524,6.006,0,0,1735.721,13.257,0,0,VIR-A
519,469,1,90.836,41.918,3.587,-576.676,6.003,0,0,1724.385,12.988,0,0,CYG-A
520,469,1,90.836,41.918,3.587,-579.09,5.589,0,0,1739.828,12.145,0,0,CYG-A
523,470,1,39.131,51.027,3.602,-450.257,7.6,0,0,1697.475,16.426,0,0,CAS-A
524,470,1,39.131,51.027,3.602,-434.094,3.547,0,0,1747.953,7.709,0,0,CAS-A
527,471,1,-39.333,13.589,3.616,-621.883,0.282,0,0,1745.291,8.577,0,0,TAU-A
528,471,1,-39.333,13.589,3.616,-610.472,4.855,0,0,1742.761,10.312,0,0,TAU-A
531,472,1,217.197,21.217,3.631,-688.455,9.802,0,0,1691.177,21.343,0,0,VIR-A
532,472,1,217.197,21.217,3.631,-672.147,8.675,0,0,1751.436,18.952,0,0,VIR-A
535,473,1,94.19,42.567,3.646,-464.745,7.48,0,0,1664.075,15.951,0,0,CYG-A
536,473,1,94.19,42.567,3.646,-466.895,6.949,0,0,1676.816,14.862,0,0,CYG-A
539,474,1,41.848,51.45,3.661,-376.53,8.943,0,0,1771.727,19.668,0,0,CAS-A
540,474,1,41.848,51.45,3.661,-462.113,8.74,0,0,1670.778,18.73,0,0,CAS-A
543,475,1,-36.138,13.192,3.675,-656.742,5.539,0,0,1751.984,12.158,0,0,TAU-A
544,475,1,-36.138,13.192,3.675,-662.472,5.428,0,0,1754.544,11.997,0,0,TAU-A
547,476,1,220.719,20.808,3.69,-663.457,9.672,0,0,1885.454,22.048,0,0,VIR-A
548,476,1,220.719,20.808,3.69,-702.615,6.157,0,0,1825.458,13.99,0,0,VIR-A
551,477,1,97.563,43.212,3.705,-532.747,6.247,0,0,1706.255,13.475,0,0,CYG-A
552,477,1,97.563,43.212,3.705,-532.584,6.963,0,0,1699.663,14.836,0,0,CYG-A
555,478,1,44.561,51.895,3.72,-380.272,21.793,0,0,1506.629,44.585,0,0,CAS-A
556,478,1,44.561,51.895,3.72,-382.634,7.739,0,0,1703.35,16.571,0,0,CAS-A
559,479,1,-32.94,12.825,3.734,-650.463,6.041,0,0,1715.42,13.573,0,0,TAU-A
560,479,1,-32.94,12.825,3.734,-638.776,6.8,0,0,1736.038,14.931,0,0,TAU-A
563,480,1,224.221,20.369,3.749,-609.439,4.686,0,0,1749.402,10.076,0,0,VIR-A
564,480,1,224.221,20.369,3.749,-612.279,6.834,0,0,1754.809,14.855,0,0,VIR-A
567,481,1,100.973,43.853,3.765,-500.042,5.752,0,0,1678.996,12.618,0,0,CYG-A
568,481,1,100.973,43.853,3.765,-506.183,6.054,0,0,1680.407,12.896,0,0,CYG-A
571,482,1,47.297,52.363,3.779,-387.275,10.823,0,0,1645.936,22.767,0,0,CAS-A
572,482,1,47.297,52.363,3.779,-422.466,6.122,0,0,1744.162,13.197,0,0,CAS-A
575,483,1,-29.739,12.489,3.794,-623.496,8.462,0,0,1787.173,19.27,0,0,TAU-A
576,483,1,-29.739,12.489,3.794,-632.736,5.682,0,0,1612.834,11.909,0,0,TAU-A
579,484,1,227.7,19.902,3.808,-640.26,7.287,0,0,1794.858,15.812,0,0,VIR-A
580,484,1,227.7,19.902,3.808,-663.467,6.202,0,0,1712.741,13.419,0,0,VIR-A
583,485,1,104.442,44.485,3.824,-438.728,7.482,0,0,1692.02,15.927,0,0,CYG-A
584,485,1,104.442,44.485,3.824,-438.169,7.368,0,0,1699.653,15.701,0,0,CYG-A
587,486,1,50.062,52.852,3.838,-391.053,8.806,0,0,1654.105,18.87,0,0,CAS-A
588,486,1,50.062,52.852,3.838,-391.229,8.849,0,0,1664.212,18.864,0,0,CAS-A
591,487,1,-26.536,12.184,3.853,-637.055,4.941,0,0,1738.365,11.231,0,0,TAU-A
592,487,1,-26.536,12.184,3.853,-630.965,5.022,0,0,1770.044,11.028,0,0,TAU-A
595,488,1,231.173,19.408,3.867,-671.455,5.775,0,0,1742.301,12.816,0,0,VIR-A
596,488,1,231.173,19.408,3.867,-645.273,7.051,0,0,1853.579,15.922,0,0,VIR-A
599,489,1,107.941,45.108,3.883,-512.656,6.038,0,0,1718.784,13.044,0,0,CYG-A
600,489,1,107.941,45.108,3.883,-521.265,6.258,0,0,1707.698,12.902,0,0,CYG-A
603,490,1,52.843,53.36,3.897,-391.82,8.499,0,0,1683.866,17.883,0,0,CAS-A
604,490,1,52.843,53.36,3.897,-394.522,8.201,0,0,1691.747,17.531,0,0,CAS-A
607,491,1,-23.348,11.911,3.912,-675.781,5.109,0,0,1753.847,11.127,0,0,TAU-A
608,491,1,-23.348,11.911,3.912,-682.922,4.741,0,0,1758.932,10.444,0,0,TAU-A
611,492,1,234.638,18.89,3.926,-568.906,9.273,0,0,1784.341,20.842,0,0,VIR-A
612,492,1,234.638,18.89,3.926,-570.691,4.968,0,0,1758.073,10.875,0,0,VIR-A
615,493,1,111.478,45.718,3.942,-502.544,6.562,0,0,1697.405,14.17,0,0,CYG-A
616,493,1,111.478,45.718,3.942,-506.04,6.179,0,0,1710.294,13.436,0,0,CYG-A
619,494,1,55.645,53.888,3.956,-452.072,7.121,0,0,1670.506,15.281,0,0,CAS-A
620,494,1,55.645,53.888,3.956,-456.939,7.026,0,0,1676.63,15.108,0,0,CAS-A
623,495,1,-20.148,11.672,3.971,-608.158,5.237,0,0,1718.636,11.433,0,0,TAU-A
624,495,1,-20.148,11.672,3.971,-610.772,5.797,0,0,1735.577,12.71,0,0,TAU-A
631,497,1,115.073,46.314,4.001,-512.27,6.599,0,0,1695.418,14.182,0,0,CYG-A
632,497,1,115.073,46.314,4.001,-515.273,6.173,0,0,1707.495,13.133,0,0,CYG-A
635,498,1,58.482,54.435,4.016,-355.272,8.891,0,0,1672.783,18.949,0,0,CAS-A
636,498,1,58.482,54.435,4.016,-362.299,8.714,0,0,1682.062,18.452,0,0,CAS-A
639,499,1,-16.948,11.466,4.03,-695.563,5.156,0,0,1729.485,11.404,0,0,TAU-A
640,499,1,-16.948,11.466,4.03,-702.5,4.455,0,0,1737.741,9.869,0,0,TAU-A
643,500,1,241.511,17.786,4.044,-704.385,6.145,0,0,1753.495,13.763,0,0,VIR-A
644,500,1,241.511,17.786,4.044,-693.707,12.848,0,0,1925.341,29.623,0,0,VIR-A
647,501,1,118.721,46.892,4.06,-445.037,7.439,0,0,1692.074,16.212,0,0,CYG-A
648,501,1,118.721,46.892,4.06,-451.446,7.497,0,0,1696.138,16.133,0,0,CYG-A
651,502,1,61.341,54.998,4.075,-451.247,7.509,0,0,1690.784,16.105,0,0,CAS-A
652,502,1,61.341,54.998,4.075,-455.047,7.38,0,0,1701.773,16.062,0,0,CAS-A
655,503,1,-13.741,11.295,4.089,-631.102,5.37,0,0,1715.184,11.819,0,0,TAU-A
656,503,1,-13.741,11.295,4.089,-634.365,5.212,0,0,1720.619,11.739,0,0,TAU-A
659,504,1,244.937,17.206,4.103,-608.973,6.051,0,0,1767.084,13.485,0,0,VIR-A
660,504,1,244.937,17.206,4.103,-631.402,5.901,0,0,1685.201,12.547,0,0,VIR-A
663,505,1,122.391,47.451,4.119,-497.491,6.268,0,0,1690.115,13.564,0,0,CYG-A
664,505,1,122.391,47.451,4.119,-502.206,6.268,0,0,1700.235,13.4,0,0,CYG-A
667,506,1,64.236,55.577,4.134,-441.332,7.77,0,0,1687.158,16.748,0,0,CAS-A
668,506,1,64.236,55.577,4.134,-442.298,7.82,0,0,1694.737,16.776,0,0,CAS-A
671,507,1,-10.539,11.16,4.148,-635.63,5.284,0,0,1724.199,11.316,0,0,TAU-A
672,507,1,-10.539,11.16,4.148,-642.953,5.914,0,0,1721.594,13.078,0,0,TAU-A
675,508,1,248.332,16.609,4.163,-667.447,5.532,0,0,1755.008,12.199,0,0,VIR-A
676,508,1,248.332,16.609,4.163,-684.471,6.421,0,0,1750.387,14.201,0,0,VIR-A
679,509,1,126.128,47.988,4.178,-409.769,8.031,0,0,1667.487,16.945,0,0,CYG-A
680,509,1,126.128,47.988,4.178,-416.242,7.776,0,0,1680.032,16.447,0,0,CYG-A
683,510,1,67.192,56.17,4.193,-350.017,8.708,0,0,1682.465,18.491,0,0,CAS-A
684,510,1,67.192,56.17,4.193,-354.698,8.695,0,0,1681.994,18.648,0,0,CAS-A
687,511,1,-7.352,11.06,4.207,-650.407,4.737,0,0,1729.235,10.269,0,0,TAU-A
688,511,1,-7.352,11.06,4.207,-660.14,4.554,0,0,1731.495,10.012,0,0,TAU-A
691,512,1,251.726,15.997,4.222,-657.484,8.276,0,0,1815.304,18.259,0,0,VIR-A
692,512,1,251.726,15.997,4.222,-673.814,4.479,0,0,1698.532,9.64,0,0,VIR-A
695,513,1,129.904,48.499,4.237,-406.102,9.295,0,0,1669.118,19.761,0,0,CYG-A
696,513,1,129.904,48.499,4.237,-408.215,8.069,0,0,1689.542,17.434,0,0,CYG-A
699,514,1,70.141,56.777,4.252,-436.147,6.379,0,0,1720.703,13.757,0,0,CAS-A
700,514,1,70.141,56.777,4.252,-417.003,6.243,0,0,1750.245,13.259,0,0,CAS-A
703,515,1,-4.149,10.996,4.267,-689.978,5.453,0,0,1760.954,12.008,0,0,TAU-A
704,515,1,-4.149,10.996,4.267,-692.902,5.537,0,0,1771.269,12.135,0,0,TAU-A
707,516,1,255.104,15.373,4.281,-701.515,29.606,0,0,1627.634,60.979,0,0,VIR-A
711,517,1,133.728,48.983,4.297,-500.634,6.419,0,0,1685.158,13.72,0,0,CYG-A
712,517,1,133.728,48.983,4.297,-504.565,5.88,0,0,1689.988,12.864,0,0,CYG-A
715,518,1,73.172,57.395,4.311,-379.399,8.932,0,0,1671.182,19.103,0,0,CAS-A
716,518,1,73.172,57.395,4.311,-382.064,8.923,0,0,1677.41,19.073,0,0,CAS-A
721,520,1,258.481,14.739,4.34,-680.793,8.722,0,0,1836.276,19.304,0,0,VIR-A
722,520,1,258.481,14.739,4.34,-708.828,23.679,0,0,1728.522,52.658,0,0,VIR-A
725,521,1,137.595,49.436,4.356,-382.676,9.534,0,0,1656.73,20.646,0,0,CYG-A
726,521,1,137.595,49.436,4.356,-385.755,8.711,0,0,1669.377,18.599,0,0,CYG-A
729,522,1,76.217,58.023,4.371,-319.598,10.993,0,0,1656.987,23.319,0,0,CAS-A
730,522,1,76.217,58.023,4.371,-324.315,4.606,0,0,1670.945,9.783,0,0,CAS-A
733,523,1,2.28,10.977,4.385,-651.906,5.414,0,0,1728.601,11.83,0,0,TAU-A
734,523,1,2.28,10.977,4.385,-653.752,5.614,0,0,1718.95,12.301,0,0,TAU-A
741,525,1,141.535,49.858,4.415,-443.931,8.118,0,0,1680.34,17.308,0,0,CYG-A
742,525,1,141.535,49.858,4.415,-445.449,7.521,0,0,1695.806,16.213,0,0,CYG-A
745,526,1,79.336,58.66,4.43,-407.156,7.89,0,0,1667.526,17.158,0,0,CAS-A
746,526,1,79.336,58.66,4.43,-415,8.52,0,0,1664.601,18.297,0,0,CAS-A
749,527,1,5.479,11.022,4.444,-603.797,4.928,0,0,1749.849,10.712,0,0,TAU-A
750,527,1,5.479,11.022,4.444,-612.74,5.315,0,0,1723.08,11.81,0,0,TAU-A
753,528,1,265.198,13.449,4.459,-674.617,8.372,0,0,1799.273,18.947,0,0,VIR-A
754,528,1,265.198,13.449,4.459,-679.042,5.402,0,0,1785.316,11.911,0,0,VIR-A
757,529,1,145.479,50.244,4.475,-371.961,8.783,0,0,1676.86,18.277,0,0,CYG-A
758,529,1,145.479,50.244,4.475,-374.86,9.602,0,0,1675.366,20.337,0,0,CYG-A
761,530,1,82.508,59.305,4.489,-322.207,9.791,0,0,1670.145,20.864,0,0,CAS-A
762,530,1,82.508,59.305,4.489,-325.278,10.374,0,0,1674.448,22.044,0,0,CAS-A
765,531,1,8.69,11.104,4.504,-668.614,5.234,0,0,1732.757,11.6,0,0,TAU-A
766,531,1,8.69,11.104,4.504,-676.993,5.337,0,0,1737.946,11.901,0,0,TAU-A
769,532,1,268.552,12.798,4.518,-630.317,5.295,0,0,1773.739,11.884,0,0,VIR-A
770,532,1,268.552,12.798,4.518,-626.946,8.272,0,0,1805.421,18.762,0,0,VIR-A
773,533,1,149.478,50.593,4.534,-480.714,7.167,0,0,1671.171,15.269,0,0,CYG-A
774,533,1,149.478,50.593,4.534,-482.787,7.077,0,0,1686.886,15.332,0,0,CYG-A
777,534,1,85.734,59.954,4.549,-314.962,10.35,0,0,1663.664,21.909,0,0,CAS-A
778,534,1,85.734,59.954,4.549,-321.896,8.356,0,0,1679.747,17.764,0,0,CAS-A
781,535,1,11.911,11.221,4.563,-637.044,4.225,0,0,1719.719,9.219,0,0,TAU-A
782,535,1,11.911,11.221,4.563,-643.881,4.359,0,0,1719.046,9.151,0,0,TAU-A
785,536,1,271.885,12.145,4.578,-673.228,10.008,0,0,1848.482,23.027,0,0,VIR-A
786,536,1,271.885,12.145,4.578,-707.258,3.909,0,0,1734.338,8.706,0,0,VIR-A
789,537,1,153.517,50.903,4.593,-372.505,10.313,0,0,1653.853,21.801,0,0,CYG-A
790,537,1,153.517,50.903,4.593,-375.538,8.55,0,0,1689.636,18.238,0,0,CYG-A
793,538,1,89.003,60.605,4.608,-392.491,8.682,0,0,1653.445,18.917,0,0,CAS-A
794,538,1,89.003,60.605,4.608,-396.544,8.253,0,0,1662.923,16.976,0,0,CAS-A
797,539,1,15.109,11.375,4.622,-723.476,5.662,0,0,1768.713,12.617,0,0,TAU-A
798,539,1,15.109,11.375,4.622,-727.018,6.154,0,0,1769.003,13.649,0,0,TAU-A
801,540,1,275.204,11.495,4.637,-715.673,4.812,0,0,1785.951,10.614,0,0,VIR-A
802,540,1,275.204,11.495,4.637,-708.494,3.931,0,0,1738.807,8.501,0,0,VIR-A
805,541,1,157.584,51.171,4.653,-470.185,7.831,0,0,1687.482,16.559,0,0,CYG-A
806,541,1,157.584,51.171,4.653,-468.961,7.293,0,0,1702.669,15.46,0,0,CYG-A
809,542,1,92.354,61.256,4.667,-389.764,8.928,0,0,1651.48,19.224,0,0,CAS-A
810,542,1,92.354,61.256,4.667,-396.709,8.334,0,0,1650.863,17.855,0,0,CAS-A
813,543,1,18.325,11.563,4.682,-600.075,4.784,0,0,1744.155,10.43,0,0,TAU-A
814,543,1,18.325,11.563,4.682,-606.261,5.245,0,0,1750.726,11.493,0,0,TAU-A
817,544,1,278.529,10.849,4.696,-750.215,5.154,0,0,1787.561,11.322,0,0,VIR-A
818,544,1,278.529,10.849,4.696,-715.348,6.707,0,0,1697.054,14.766,0,0,VIR-A
821,545,1,161.683,51.396,4.712,-476.892,5.985,0,0,1715.784,12.905,0,0,CYG-A
822,545,1,161.683,51.396,4.712,-676.344,3.99,0,0,2007.243,7.84,0,0,CYG-A
825,546,1,95.776,61.907,4.727,-278.291,10.981,0,0,1659.978,23.689,0,0,CAS-A
826,546,1,95.776,61.907,4.727,-280.589,10.003,0,0,1667.46,21.16,0,0,CAS-A
829,547,1,21.536,11.787,4.741,-615.023,5.552,0,0,1749.584,12.117,0,0,TAU-A
830,547,1,21.536,11.787,4.741,-633.15,4.075,0,0,1730.837,1.727,0,0,TAU-A
833,548,1,281.849,10.206,4.756,-602.984,5.237,0,0,1860.546,12.096,0,0,VIR-A
834,548,1,281.849,10.206,4.756,-610.679,6.985,0,0,1829.938,15.413,0,0,VIR-A
837,549,1,165.824,51.577,4.771,-390.198,8.872,0,0,1656.58,18.879,0,0,CYG-A
838,549,1,165.824,51.577,4.771,-391.288,8.642,0,0,1668.607,18.664,0,0,CYG-A
841,550,1,99.284,62.553,4.786,-404.592,8.749,0,0,1679.656,18.958,0,0,CAS-A
842,550,1,99.284,62.553,4.786,-407.578,9.019,0,0,1682.128,19.057,0,0,CAS-A
845,551,1,24.748,12.044,4.801,-699.05,6.289,0,0,1770.568,13.95,0,0,TAU-A
846,551,1,24.748,12.044,4.801,-706.133,5.465,0,0,1743.899,11.892,0,0,TAU-A
849,552,1,168.887,51.681,4.815,-374.347,8.546,0,0,1655.847,18.216,0,0,CYG-A
850,552,1,168.887,51.681,4.815,-376.308,8.387,0,0,1662.314,18.04,0,0,CYG-A
853,553,1,101.919,63.027,4.83,-452.099,7.041,0,0,1814.134,15.024,0,0,CAS-A
854,553,1,101.919,63.027,4.83,-451.954,6.946,0,0,1818.495,14.869,0,0,CAS-A
857,554,1,27.133,12.256,4.844,-623.217,5.732,0,0,1793.771,12.522,0,0,TAU-A
858,554,1,27.133,12.256,4.844,-639.67,6.004,0,0,1768.823,13.04,0,0,TAU-A
861,555,1,171.946,51.76,4.859,-448.37,7.127,0,0,1674.589,15.171,0,0,CYG-A
862,555,1,171.946,51.76,4.859,-452.175,7.082,0,0,1674.422,15.142,0,0,CYG-A
865,556,1,104.614,63.496,4.874,-287.139,5.047,0,0,1666.323,10.763,0,0,CAS-A
866,556,1,104.614,63.496,4.874,-292.634,5.944,0,0,1664.925,12.653,0,0,CAS-A
869,557,1,29.506,12.485,4.888,-619.528,5.247,0,0,1737.332,11.803,0,0,TAU-A
870,557,1,29.506,12.485,4.888,-627.158,5.119,0,0,1737.845,11.156,0,0,TAU-A
873,558,1,175.014,51.814,4.903,-444.991,7.395,0,0,1703.517,15.898,0,0,CYG-A
874,558,1,175.014,51.814,4.903,-450.168,4.76,0,0,1708.475,10.2,0,0,CYG-A
877,559,1,107.385,63.96,4.918,-323.632,9.795,0,0,1665.133,21.112,0,0,CAS-A
878,559,1,107.385,63.96,4.918,-328.531,10.069,0,0,1670.123,21.5,0,0,CAS-A
881,560,1,31.884,12.732,4.932,-608.515,5.313,0,0,1710.626,11.64,0,0,TAU-A
882,560,1,31.884,12.732,4.932,-609.835,5.226,0,0,1723.696,11.396,0,0,TAU-A
885,561,1,178.111,51.841,4.947,-358.314,8.954,0,0,1657.332,18.935,0,0,CYG-A
886,561,1,178.111,51.841,4.947,-366.237,8.31,0,0,1670.029,18.158,0,0,CYG-A
889,562,1,110.135,64.417,4.962,-331.427,8.794,0,0,1651.759,18.761,0,0,CAS-A
890,562,1,110.135,64.417,4.962,-338.175,9.421,0,0,1650.486,19.749,0,0,CAS-A
893,563,1,34.265,12.996,4.976,-655.482,5.077,0,0,1719.392,10.481,0,0,TAU-A
894,563,1,34.265,12.996,4.976,-657.41,5.209,0,0,1734.201,11.672,0,0,TAU-A
897,564,1,181.195,51.843,4.991,-362.425,12.875,0,0,1748.405,28.172,0,0,CYG-A
898,564,1,181.195,51.843,4.991,-372.986,6.503,0,0,1693.649,14.155,0,0,CYG-A
901,565,1,112.998,64.865,5.006,-268.599,11.964,0,0,1645.883,24.897,0,0,CAS-A
902,565,1,112.998,64.865,5.006,-272.954,10.991,0,0,1650.922,23.317,0,0,CAS-A
905,566,1,36.632,13.278,5.02,-665.844,5.239,0,0,1714.562,11.396,0,0,TAU-A
906,566,1,36.632,13.278,5.02,-672.281,4.386,0,0,1725.681,9.664,0,0,TAU-A
909,567,1,184.28,51.818,5.035,-352.978,8.486,0,0,1688.73,18.291,0,0,CYG-A
910,567,1,184.28,51.818,5.035,-361.724,7.611,0,0,1694.511,16.896,0,0,CYG-A
913,568,1,115.879,65.304,5.05,-305.994,10.207,0,0,1658.317,21.583,0,0,CAS-A
914,568,1,115.879,65.304,5.05,-311.094,10.123,0,0,1655.845,21.591,0,0,CAS-A
917,569,1,39.018,13.574,5.064,-624.495,6.097,0,0,1712.798,13.169,0,0,TAU-A
918,569,1,39.018,13.574,5.064,-631.129,4.073,0,0,1741.877,8.895,0,0,TAU-A
921,570,1,187.383,51.768,5.079,-416.741,8.39,0,0,1664.889,18.044,0,0,CYG-A
922,570,1,187.383,51.768,5.079,-423.328,7.458,0,0,1668.663,16.066,0,0,CYG-A
925,571,1,118.869,65.731,5.094,-244.874,12.04,0,0,1585.948,24.897,0,0,CAS-A
926,571,1,118.869,65.731,5.094,-246.265,11.375,0,0,1593.479,23.909,0,0,CAS-A
929,572,1,41.397,13.887,5.108,-644.371,4.938,0,0,1729.76,10.874,0,0,TAU-A
930,572,1,41.397,13.887,5.108,-648.345,12.246,0,0,1742.95,27.146,0,0,TAU-A
933,573,1,190.454,51.692,5.123,-380.929,8.923,0,0,1678.557,18.84,0,0,CYG-A
934,573,1,190.454,51.692,5.123,-383.283,8.805,0,0,1692.773,18.939,0,0,CYG-A
937,574,1,121.871,66.147,5.138,-326.259,9.979,0,0,1669.637,21.256,0,0,CAS-A
938,574,1,121.871,66.147,5.138,-333.506,10.267,0,0,1672.537,21.795,0,0,CAS-A
941,575,1,43.785,14.214,5.152,-608.423,9.428,0,0,1818.188,21.755,0,0,TAU-A
942,575,1,43.785,14.214,5.152,-618.971,6.308,0,0,1701.567,13.86,0,0,TAU-A
945,576,1,193.514,51.591,5.167,-395.16,7.615,0,0,1689.112,16.247,0,0,CYG-A
946,576,1,193.514,51.591,5.167,-396.339,7.917,0,0,1689.397,17.013,0,0,CYG-A
949,577,1,124.949,66.549,5.181,-322.506,6.014,0,0,1658.44,12.733,0,0,CAS-A
950,577,1,124.949,66.549,5.181,-326.371,8.712,0,0,1678.929,18.518,0,0,CAS-A
953,578,1,46.169,14.556,5.196,-622.13,5.475,0,0,1726.248,11.991,0,0,TAU-A
954,578,1,46.169,14.556,5.196,-632.083,3.344,0,0,1727.509,7.292,0,0,TAU-A
957,579,1,196.587,51.464,5.21,-432.652,7.639,0,0,1682.539,16.355,0,0,CYG-A
958,579,1,196.587,51.464,5.21,-435.118,7.421,0,0,1693.32,15.925,0,0,CYG-A
961,580,1,128.115,66.935,5.225,-263.793,11.044,0,0,1643.091,23.223,0,0,CAS-A
962,580,1,128.115,66.935,5.225,-265.486,5.375,0,0,1646.405,11.391,0,0,CAS-A
965,581,1,48.547,14.912,5.24,-694.801,9.101,0,0,1682.371,19.634,0,0,TAU-A
966,581,1,48.547,14.912,5.24,-695.757,8.926,0,0,1730.488,19.596,0,0,TAU-A
969,582,1,199.614,51.313,5.254,-390.86,5.976,0,0,1706.46,12.974,0,0,CYG-A
970,582,1,199.614,51.313,5.254,-395.557,8.425,0,0,1689.688,18.095,0,0,CYG-A
973,583,1,131.308,67.306,5.269,-262.036,10.242,0,0,1633.105,21.758,0,0,CAS-A
974,583,1,131.308,67.306,5.269,-266.08,7.059,0,0,1636.619,14.993,0,0,CAS-A
977,584,1,50.944,15.28,5.284,-689.558,5.157,0,0,1765.846,11.307,0,0,TAU-A
978,584,1,50.944,15.28,5.284,-694.257,5.446,0,0,1767.873,11.793,0,0,TAU-A
981,585,1,202.63,51.137,5.298,-452.699,6.974,0,0,1705.979,14.891,0,0,CYG-A
982,585,1,202.63,51.137,5.298,-455.758,3.388,0,0,1703.619,7.255,0,0,CYG-A
985,586,1,134.548,67.658,5.313,-318.624,10.715,0,0,1635.3,22.64,0,0,CAS-A
986,586,1,134.548,67.658,5.313,-322.496,5.78,0,0,1652.239,12.296,0,0,CAS-A
989,587,1,53.317,15.662,5.328,-654.514,5.052,0,0,1744.128,11.175,0,0,TAU-A
990,587,1,53.317,15.662,5.328,-661.898,5.099,0,0,1731.738,11.139,0,0,TAU-A
993,588,1,205.654,50.939,5.342,-455.533,7.195,0,0,1673.561,15.5,0,0,CYG-A
994,588,1,205.654,50.939,5.342,-456.255,6.848,0,0,1689.544,14.613,0,0,CYG-A
997,589,1,137.867,67.99,5.357,-235.373,10.19,0,0,1660.524,21.404,0,0,CAS-A
998,589,1,137.867,67.99,5.357,-241.562,10.194,0,0,1659.923,21.61,0,0,CAS-A
1001,590,1,55.708,16.056,5.372,-662.796,4.912,0,0,1751.349,11.577,0,0,TAU-A
1002,590,1,55.708,16.056,5.372,-665.402,5.367,0,0,1745.666,11.754,0,0,TAU-A
1005,591,1,208.67,50.717,5.386,-418.387,7.316,0,0,1675.358,15.681,0,0,CYG-A
1006,591,1,208.67,50.717,5.386,-426.656,7.338,0,0,1682.68,15.798,0,0,CYG-A
1009,592,1,141.252,68.302,5.401,-294.02,10.903,0,0,1626.656,22.977,0,0,CAS-A
1010,592,1,141.252,68.302,5.401,-296.952,9.475,0,0,1648.784,20.117,0,0,CAS-A
1013,593,1,58.106,16.46,5.416,-698.237,5.053,0,0,1734.702,11.16,0,0,TAU-A
1014,593,1,58.106,16.46,5.416,-702.609,5.238,0,0,1734.751,11.648,0,0,TAU-A
1017,594,1,211.649,50.474,5.43,-465.761,6.219,0,0,1698.948,13.558,0,0,CYG-A
1018,594,1,211.649,50.474,5.43,-470.197,6.196,0,0,1708.447,13.579,0,0,CYG-A
1021,595,1,144.684,68.591,5.445,-271.756,9.713,0,0,1675.988,20.661,0,0,CAS-A
1022,595,1,144.684,68.591,5.445,-276.098,10.69,0,0,1665.283,22.823,0,0,CAS-A
1025,596,1,60.512,16.877,5.46,-602.976,5.193,0,0,1751.735,11.317,0,0,TAU-A
1026,596,1,60.512,16.877,5.46,-607.533,5.396,0,0,1737.806,12.047,0,0,TAU-A
1029,597,1,214.607,50.209,5.474,-436.378,7.123,0,0,1696.931,15.262,0,0,CYG-A
1030,597,1,214.607,50.209,5.474,-441.179,4.257,0,0,1699.744,9.188,0,0,CYG-A
1033,598,1,148.211,68.856,5.489,-272.986,10.004,0,0,1664.577,1.521,0,0,CAS-A
1034,598,1,148.211,68.856,5.489,-280.919,10.156,0,0,1663.729,21.677,0,0,CAS-A
1037,599,1,62.912,17.302,5.504,-667.776,6.278,0,0,1847.931,14.03,0,0,TAU-A
1038,599,1,62.912,17.302,5.504,-671.883,5.995,0,0,1841.468,13.048,0,0,TAU-A
1041,600,1,217.539,49.923,5.518,-507.537,6.253,0,0,1709.88,13.828,0,0,CYG-A
1042,600,1,217.539,49.923,5.518,-510.273,6.011,0,0,1725.698,13.087,0,0,CYG-A
1045,601,1,151.801,69.095,5.533,-202.486,10.977,0,0,1628.898,23.385,0,0,CAS-A
1046,601,1,151.801,69.095,5.533,-207.464,5.961,0,0,1639.275,12.306,0,0,CAS-A
1053,603,1,220.46,49.618,5.562,-375.195,8.445,0,0,1693.129,18.15,0,0,CYG-A
1054,603,1,220.46,49.618,5.562,-382.802,6.773,0,0,1700.712,14.558,0,0,CYG-A
1057,604,1,155.414,69.308,5.577,-223.233,7.75,0,0,1660.401,10.11,0,0,CAS-A
1058,604,1,155.414,69.308,5.577,-228.232,11.719,0,0,1658.778,24.813,0,0,CAS-A
1061,605,1,67.736,18.181,5.592,-591.031,5.178,0,0,1709.138,11.294,0,0,TAU-A
1062,605,1,67.736,18.181,5.592,-595.51,5.805,0,0,1731.922,12.466,0,0,TAU-A
1065,606,1,223.346,49.294,5.606,-487.539,7.294,0,0,1704.972,15.781,0,0,CYG-A
1066,606,1,223.346,49.294,5.606,-490.959,6.403,0,0,1709.204,13.948,0,0,CYG-A
1069,607,1,159.045,69.493,5.621,-326.747,10.945,0,0,1664.156,22.971,0,0,CAS-A
1070,607,1,159.045,69.493,5.621,-331.77,6.303,0,0,1667.52,13.258,0,0,CAS-A
1073,608,1,70.131,18.633,5.636,-638.837,5.583,0,0,1747.296,12.352,0,0,TAU-A
1074,608,1,70.131,18.633,5.636,-649.453,5.806,0,0,1727.32,12.547,0,0,TAU-A
1077,609,1,226.214,48.953,5.65,-488.038,7.424,0,0,1698.937,16.033,0,0,CYG-A
1078,609,1,226.214,48.953,5.65,-491.9,6.237,0,0,1712.57,13.902,0,0,CYG-A
1081,610,1,162.753,69.649,5.665,-202.704,11.521,0,0,1651.045,24.245,0,0,CAS-A
1082,610,1,162.753,69.649,5.665,-210.946,6.794,0,0,1653.494,14.352,0,0,CAS-A
1085,611,1,72.574,19.09,5.679,-638.013,4.185,0,0,1753.652,9.357,0,0,TAU-A
1086,611,1,72.574,19.09,5.679,-645.526,5.674,0,0,1743.835,12.497,0,0,TAU-A
1089,612,1,229.06,48.595,5.694,-430.326,8.282,0,0,1676.305,17.472,0,0,CYG-A
1090,612,1,229.06,48.595,5.694,-433.284,3.589,0,0,1682.381,7.629,0,0,CYG-A
1093,613,1,166.486,69.774,5.709,-193.769,11.617,0,0,1655.406,24.403,0,0,CAS-A
1094,613,1,166.486,69.774,5.709,-195.925,11.534,0,0,1656.45,24.327,0,0,CAS-A
1097,614,1,74.985,19.555,5.723,-577.982,5.795,0,0,1714.626,12.645,0,0,TAU-A
1098,614,1,74.985,19.555,5.723,-590.181,3.153,0,0,1729.767,6.934,0,0,TAU-A
1101,615,1,231.883,48.221,5.738,-521.609,5.279,0,0,1729.577,11.066,0,0,CYG-A
1102,615,1,231.883,48.221,5.738,-524.594,5.973,0,0,1733.061,13.151,0,0,CYG-A
1105,616,1,170.27,69.87,5.753,-220.311,11.515,0,0,1657.163,24.347,0,0,CAS-A
1106,616,1,170.27,69.87,5.753,-226.969,11.638,0,0,1658.142,24.112,0,0,CAS-A
1109,617,1,77.43,20.024,5.767,-691.703,3.932,0,0,1735.237,8.685,0,0,TAU-A
1110,617,1,77.43,20.024,5.767,-673.675,5.711,0,0,1720.863,12.373,0,0,TAU-A
1113,618,1,234.677,47.833,5.782,-471.934,5.802,0,0,1691.762,12.528,0,0,CYG-A
1114,618,1,234.677,47.833,5.782,-476.463,5.691,0,0,1696.85,12.238,0,0,CYG-A
1117,619,1,174.021,69.933,5.797,-302.812,9.747,0,0,1671.785,20.601,0,0,CAS-A
1118,619,1,174.021,69.933,5.797,-305.591,10.158,0,0,1672.015,22.096,0,0,CAS-A
1121,620,1,79.849,20.498,5.811,-627.961,4.563,0,0,1732.324,10.079,0,0,TAU-A
1122,620,1,79.849,20.498,5.811,-635.249,5.185,0,0,1692.169,11.573,0,0,TAU-A
1125,621,1,237.439,47.432,5.826,-508.589,16.257,0,0,1602.282,34.21,0,0,CYG-A
1126,621,1,237.439,47.432,5.826,-483.834,31.783,0,0,1480.672,63.492,0,0,CYG-A
1133,623,1,82.29,20.975,5.855,-629.347,3.884,0,0,1723.688,8.582,0,0,TAU-A
1134,623,1,82.29,20.975,5.855,-650.96,4.397,0,0,1736.972,9.854,0,0,TAU-A
1137,624,1,240.188,47.019,5.87,-455.063,7.323,0,0,1702.621,15.533,0,0,CYG-A
1138,624,1,240.188,47.019,5.87,-460.905,6.812,0,0,1712.197,14.677,0,0,CYG-A
1141,625,1,181.589,69.965,5.885,-275.25,10.722,0,0,1661.57,22.851,0,0,CAS-A
1142,625,1,181.589,69.965,5.885,-278.888,10.339,0,0,1657.06,22.005,0,0,CAS-A
1145,626,1,84.739,21.454,5.899,-649.708,6.533,0,0,1788.852,14.689,0,0,TAU-A
1146,626,1,84.739,21.454,5.899,-656.369,5.08,0,0,1749.15,12.034,0,0,TAU-A
1149,627,1,242.902,46.594,5.914,-442.399,7.72,0,0,1702.78,16.545,0,0,CYG-A
1150,627,1,242.902,46.594,5.914,-449.307,7.231,0,0,1711.377,15.499,0,0,CYG-A
1153,628,1,185.387,69.933,5.929,-249.674,9.854,0,0,1640.667,20.887,0,0,CAS-A
1154,628,1,185.387,69.933,5.929,-254.536,9.698,0,0,1649.892,20.41,0,0,CAS-A
1157,629,1,87.202,21.936,5.943,-554.956,5.645,0,0,1732.02,12.275,0,0,TAU-A
1158,629,1,87.202,21.936,5.943,-560.097,4.67,0,0,1731.332,10.195,0,0,TAU-A
1161,630,1,245.61,46.158,5.958,-533.254,6.122,0,0,1726.48,13.147,0,0,CYG-A
1162,630,1,245.61,46.158,5.958,-533.736,6.001,0,0,1734.531,12.964,0,0,CYG-A
1165,631,1,189.202,69.869,5.973,-301.312,9.821,0,0,1671.792,20.828,0,0,CAS-A
1166,631,1,189.202,69.869,5.973,-305.023,5.215,0,0,1674.177,11.156,0,0,CAS-A
1169,632,1,89.675,22.419,5.987,-574.668,6.167,0,0,1719.165,13.384,0,0,TAU-A
1170,632,1,89.675,22.419,5.987,-586.971,5.269,0,0,1737.673,11.495,0,0,TAU-A
1173,633,1,248.257,45.713,6.002,-414.008,7.118,0,0,1707.892,15.369,0,0,CYG-A
1174,633,1,248.257,45.713,6.002,-417.472,7.05,0,0,1705.891,15.115,0,0,CYG-A
1177,634,1,192.941,69.774,6.017,-288.161,10.737,0,0,1658.804,22.786,0,0,CAS-A
1178,634,1,192.941,69.774,6.017,-293.729,10.013,0,0,1669.34,21.3,0,0,CAS-A
1181,635,1,92.145,22.902,6.031,-572.854,5.568,0,0,1710.091,12.084,0,0,TAU-A
1182,635,1,92.145,22.902,6.031,-572.969,3.816,0,0,1719.42,8.299,0,0,TAU-A
1185,636,1,250.907,45.26,6.046,-541.288,5.481,0,0,1722.136,12.14,0,0,CYG-A
1186,636,1,250.907,45.26,6.046,-543.716,5.711,0,0,1722.988,12.438,0,0,CYG-A
1189,637,1,196.67,69.648,6.061,-262.997,10.119,0,0,1658.736,21.279,0,0,CAS-A
1190,637,1,196.67,69.648,6.061,-266.464,9.618,0,0,1671.257,20.427,0,0,CAS-A
1193,638,1,94.634,23.385,6.075,-574.954,4.527,0,0,1739.531,9.89,0,0,TAU-A
1194,638,1,94.634,23.385,6.075,-582.397,4.32,0,0,1734.798,9.181,0,0,TAU-A
1197,639,1,253.53,44.799,6.09,-544.128,5.852,0,0,1729.345,12.659,0,0,CYG-A
1198,639,1,253.53,44.799,6.09,-548.696,5.83,0,0,1729.586,12.628,0,0,CYG-A
1201,640,1,200.416,69.492,6.105,-251.673,7.341,0,0,1647.006,15.573,0,0,CAS-A
1202,640,1,200.416,69.492,6.105,-256.413,8.885,0,0,1651.041,18.847,0,0,CAS-A
1205,641,1,97.123,23.866,6.119,-610.251,5.898,0,0,1724.534,13.465,0,0,TAU-A
1206,641,1,97.123,23.866,6.119,-613.658,5.579,0,0,1722.562,12.308,0,0,TAU-A
1209,642,1,256.116,44.332,6.134,-503.97,6.081,0,0,1712.586,13.026,0,0,CYG-A
1210,642,1,256.116,44.332,6.134,-507.277,5.981,0,0,1724.261,12.97,0,0,CYG-A
1213,643,1,204.041,69.308,6.149,-302.63,10.349,0,0,1641.11,22.113,0,0,CAS-A
1214,643,1,204.041,69.308,6.149,-307.96,11.256,0,0,1635.716,23.87,0,0,CAS-A
1217,644,1,99.638,24.343,6.163,-591.103,5.417,0,0,1706.448,11.603,0,0,TAU-A
1218,644,1,99.638,24.343,6.163,-595.897,4.417,0,0,1724.875,9.607,0,0,TAU-A
1221,645,1,258.692,43.861,6.178,-504.125,6.046,0,0,1714.657,13.092,0,0,CYG-A
1222,645,1,258.692,43.861,6.178,-507.593,5.367,0,0,1731.38,11.649,0,0,CYG-A
1225,646,1,207.652,69.095,6.193,-301.607,5.745,0,0,1641.081,12.185,0,0,CAS-A
1226,646,1,207.652,69.095,6.193,-307.872,10.454,0,0,1643.116,22.348,0,0,CAS-A
1229,647,1,102.147,24.816,6.207,-577.277,4.751,0,0,1698.084,10.237,0,0,TAU-A
1230,647,1,102.147,24.816,6.207,-576.762,4.931,0,0,1699.606,10.66,0,0,TAU-A
1233,648,1,261.252,43.386,6.222,-491.854,10.289,0,0,1710.391,22.259,0,0,CYG-A
1234,648,1,261.252,43.386,6.222,-493.092,5.911,0,0,1721.465,12.928,0,0,CYG-A
1237,649,1,211.225,68.856,6.236,-218.018,11.046,0,0,1660.771,23.251,0,0,CAS-A
1238,649,1,211.225,68.856,6.236,-225.594,6.347,0,0,1661.285,13.404,0,0,CAS-A
1241,650,1,104.658,25.286,6.251,-597.996,4.901,0,0,1710.336,10.695,0,0,TAU-A
1242,650,1,104.658,25.286,6.251,-599.084,5.338,0,0,1708.803,11.655,0,0,TAU-A
1245,651,1,263.785,42.907,6.265,-459.785,6.565,0,0,1689.089,14.191,0,0,CYG-A
1246,651,1,263.785,42.907,6.265,-467.61,3.295,0,0,1692.27,7.109,0,0,CYG-A
1249,652,1,214.724,68.591,6.28,-278.577,9.738,0,0,1643.796,20.674,0,0,CAS-A
1250,652,1,214.724,68.591,6.28,-283.94,10.929,0,0,1640.701,22.883,0,0,CAS-A
1253,653,1,107.198,25.75,0.012,-614.333,4.818,0,0,1725.044,10.691,0,0,TAU-A
1254,653,1,107.198,25.75,0.012,-619.189,5.148,0,0,1716.542,11.19,0,0,TAU-A
1257,654,1,266.297,42.426,0.026,-470.323,5.379,0,0,1683.716,12.028,0,0,CYG-A
1258,654,1,266.297,42.426,0.026,-476.206,3.315,0,0,1683.238,7.139,0,0,CYG-A
1261,655,1,218.176,68.302,0.041,-291.826,10.45,0,0,1659.993,22.141,0,0,CAS-A
1262,655,1,218.176,68.302,0.041,-297.375,10.223,0,0,1671.628,21.91,0,0,CAS-A
1265,656,1,109.749,26.208,0.056,-580.735,4.998,0,0,1739.098,10.793,0,0,TAU-A
1266,656,1,109.749,26.208,0.056,-586.415,4.893,0,0,1736.109,10.746,0,0,TAU-A
1269,657,1,268.79,41.943,0.07,-491.455,6.01,0,0,1691.383,12.941,0,0,CYG-A
1270,657,1,268.79,41.943,0.07,-494.273,5.971,0,0,1688.593,12.966,0,0,CYG-A
1273,658,1,221.567,67.991,0.085,-302,6.049,0,0,1656.753,12.762,0,0,CAS-A
1274,658,1,221.567,67.991,0.085,-309.784,10.519,0,0,1662.836,21.974,0,0,CAS-A
1277,659,1,112.299,26.658,0.099,-633.448,5.075,0,0,1742.886,11.217,0,0,TAU-A
1278,659,1,112.299,26.658,0.099,-641.171,5.024,0,0,1736.484,11.357,0,0,TAU-A
1281,660,1,271.244,41.461,0.114,-573.532,5.104,0,0,1734.049,11.141,0,0,CYG-A
1282,660,1,271.244,41.461,0.114,-579.392,4.898,0,0,1745.358,10.688,0,0,CYG-A
1285,661,1,224.925,67.658,0.129,-242.707,7.19,0,0,1656.097,15.163,0,0,CAS-A
1286,661,1,224.925,67.658,0.129,-246.533,10.878,0,0,1656.792,22.868,0,0,CAS-A
1289,662,1,114.877,27.101,0.143,-648.997,5.574,0,0,1720.775,12.282,0,0,TAU-A
1290,662,1,114.877,27.101,0.143,-649.991,5.894,0,0,1727.335,12.842,0,0,TAU-A
1293,663,1,273.709,40.977,0.158,-526.112,5.85,0,0,1745.038,12.894,0,0,CYG-A
1294,663,1,273.709,40.977,0.158,-529.505,4.792,0,0,1751.719,10.501,0,0,CYG-A
1297,664,1,228.182,67.306,0.173,-298.86,10.48,0,0,1654.806,22.134,0,0,CAS-A
1298,664,1,228.182,67.306,0.173,-302.334,10.381,0,0,1653.912,21.87,0,0,CAS-A
1301,665,1,117.457,27.534,0.187,-626.971,5.082,0,0,1733.607,11.149,0,0,TAU-A
1302,665,1,117.457,27.534,0.187,-632.154,5.496,0,0,1728.811,11.75,0,0,TAU-A
1305,666,1,276.14,40.497,0.202,-562.823,5.675,0,0,1733.836,12.309,0,0,CYG-A
1306,666,1,276.14,40.497,0.202,-570.587,3.741,0,0,1735.227,8.143,0,0,CYG-A
1309,667,1,231.402,66.936,0.217,-239.618,7.488,0,0,1649.102,15.852,0,0,CAS-A
1310,667,1,231.402,66.936,0.217,-244.043,5.326,0,0,1667.492,11.295,0,0,CAS-A
1313,668,1,120.046,27.957,0.231,-618.921,5.077,0,0,1729.558,11.117,0,0,TAU-A
1314,668,1,120.046,27.957,0.231,-621.892,5.018,0,0,1745.477,10.748,0,0,TAU-A
1317,669,1,278.562,40.018,0.246,-501.129,5.959,0,0,1718.462,12.748,0,0,CYG-A
1318,669,1,278.562,40.018,0.246,-506.56,3.698,0,0,1717.797,7.996,0,0,CYG-A
1321,670,1,234.543,66.549,0.261,-308.96,7.725,0,0,1693.006,16.492,0,0,CAS-A
1322,670,1,234.543,66.549,0.261,-311.15,4.168,0,0,1727.828,8.554,0,0,CAS-A
1325,671,1,122.651,28.369,0.275,-614.674,4.724,0,0,1735.298,10.323,0,0,TAU-A
1326,671,1,122.651,28.369,0.275,-618.016,4.93,0,0,1750.16,10.631,0,0,TAU-A
1329,672,1,280.953,39.542,0.29,-564.082,4.69,0,0,1737.45,10.366,0,0,CYG-A
1330,672,1,280.953,39.542,0.29,-568.054,4.945,0,0,1741.089,10.793,0,0,CYG-A
1333,673,1,237.624,66.147,0.305,-332.35,10.486,0,0,1661.192,22.068,0,0,CAS-A
1334,673,1,237.624,66.147,0.305,-334.497,4.703,0,0,1679.61,9.529,0,0,CAS-A
1337,674,1,125.271,28.769,0.319,-609.005,5.332,0,0,1729.031,11.338,0,0,TAU-A
1338,674,1,125.271,28.769,0.319,-605.14,4.963,0,0,1739.944,10.909,0,0,TAU-A
1341,675,1,283.349,39.07,0.334,-600.89,4.876,0,0,1740.002,10.615,0,0,CYG-A
1342,675,1,283.349,39.07,0.334,-607.669,5.102,0,0,1745.728,11.102,0,0,CYG-A
1345,676,1,240.657,65.731,0.349,-324.181,5.452,0,0,1656.624,11.694,0,0,CAS-A
1346,676,1,240.657,65.731,0.349,-329.558,6.904,0,0,1649.821,14.946,0,0,CAS-A
1349,677,1,127.908,29.156,0.363,-538.703,5.767,0,0,1709.833,12.453,0,0,TAU-A
1350,677,1,127.908,29.156,0.363,-545.35,5.739,0,0,1709.251,12.608,0,0,TAU-A
1353,678,1,285.727,38.603,0.378,-490.226,6.181,0,0,1712.431,13.213,0,0,CYG-A
1354,678,1,285.727,38.603,0.378,-489.473,5.805,0,0,1730.082,12.77,0,0,CYG-A
1357,679,1,243.627,65.303,0.393,-334.72,9.146,0,0,1644.175,19.841,0,0,CAS-A
1358,679,1,243.627,65.303,0.393,-336.906,8.112,0,0,1644.878,17.152,0,0,CAS-A
1361,680,1,130.551,29.53,0.407,-626.755,4.921,0,0,1719.769,10.995,0,0,TAU-A
1362,680,1,130.551,29.53,0.407,-630.708,5.05,0,0,1709.442,11.169,0,0,TAU-A
1365,681,1,288.084,38.14,0.422,-556.979,6.24,0,0,1661.212,13.294,0,0,CYG-A
1366,681,1,288.084,38.14,0.422,-551.211,0.017,0,0,1665.615,6.13,0,0,CYG-A
1369,682,1,246.555,64.864,0.437,-283.412,11.266,0,0,1656.774,23.798,0,0,CAS-A
1370,682,1,246.555,64.864,0.437,-287.031,8.839,0,0,1662.6,18.751,0,0,CAS-A
1373,683,1,133.205,29.889,0.451,-611.406,3.535,0,0,1747.861,7.779,0,0,TAU-A
1374,683,1,133.205,29.889,0.451,-615.99,5.325,0,0,1739.663,11.341,0,0,TAU-A
1377,684,1,290.426,37.685,0.466,-568.154,6.052,0,0,1714.917,13.26,0,0,CYG-A
1378,684,1,290.426,37.685,0.466,-570.071,4.659,0,0,1732.282,10.152,0,0,CYG-A
1381,685,1,249.396,64.416,0.481,-358.319,8.589,0,0,1646.43,18.262,0,0,CAS-A
1382,685,1,249.396,64.416,0.481,-365.294,4.851,0,0,1664.924,9.004,0,0,CAS-A
1385,686,1,135.876,30.232,0.495,-543.36,4.928,0,0,1739.395,10.877,0,0,TAU-A
1386,686,1,135.876,30.232,0.495,-546.816,4.836,0,0,1729.879,10.113,0,0,TAU-A
1389,687,1,292.774,37.237,0.51,-541.56,5.795,0,0,1725.077,12.522,0,0,CYG-A
1390,687,1,292.774,37.237,0.51,-545.612,5.389,0,0,1744.382,12.045,0,0,CYG-A
1393,688,1,252.189,63.959,0.525,-360.955,4.745,0,0,1699.628,10.179,0,0,CAS-A
1394,688,1,252.189,63.959,0.525,-363.636,5.915,0,0,1699.482,12.682,0,0,CAS-A
1397,689,1,138.546,30.559,0.539,-609.033,5.5,0,0,1750.126,12.071,0,0,TAU-A
1398,689,1,138.546,30.559,0.539,-615.731,4.526,0,0,1741.484,9.759,0,0,TAU-A
1401,690,1,295.091,36.796,0.554,-506.488,5.616,0,0,1723.711,12.372,0,0,CYG-A
1402,690,1,295.091,36.796,0.554,-511.906,5.377,0,0,1731.962,11.862,0,0,CYG-A
1405,691,1,254.94,63.495,0.569,-332.403,10.404,0,0,1664.729,22.149,0,0,CAS-A
1406,691,1,254.94,63.495,0.569,-356.498,7.4,0,0,1714.714,16.132,0,0,CAS-A
1409,692,1,141.243,30.87,0.583,-616.969,5.038,0,0,1728.968,11.162,0,0,TAU-A
1410,692,1,141.243,30.87,0.583,-624.651,5.302,0,0,1742.288,11.749,0,0,TAU-A
1413,693,1,297.411,36.364,0.598,-498.714,5.683,0,0,1722.647,12.468,0,0,CYG-A
1414,693,1,297.411,36.364,0.598,-506.305,5.818,0,0,1737.125,12.683,0,0,CYG-A
1417,694,1,257.637,63.026,0.613,-306.03,4.67,0,0,1922.777,8.38,0,0,CAS-A
1421,695,1,143.957,31.162,0.627,-542.547,5.598,0,0,1707.751,12.076,0,0,TAU-A
1422,695,1,143.957,31.162,0.627,-549.805,4.132,0,0,1688.229,9.016,0,0,TAU-A
1425,696,1,299.702,35.939,0.642,-568.293,18.142,0,0,1603.835,37.808,0,0,CYG-A
1426,696,1,299.702,35.939,0.642,-556.486,8.193,0,0,1727.727,18.281,0,0,CYG-A
1429,697,1,260.279,62.551,0.657,-381.563,12.959,0,0,1664.713,27.392,0,0,CAS-A
1430,697,1,260.279,62.551,0.657,-691.294,62.304,0,0,2759.5,127.776,0,0,CAS-A
1433,698,1,146.659,31.436,0.671,-613.818,5.436,0,0,1740.923,11.99,0,0,TAU-A
1434,698,1,146.659,31.436,0.671,-615.19,4.271,0,0,1717.671,9.299,0,0,TAU-A
1437,699,1,301.993,35.525,0.686,-590.22,5.012,0,0,1719.302,11.053,0,0,CYG-A
1438,699,1,301.993,35.525,0.686,-592.466,4.528,0,0,1733.56,9.946,0,0,CYG-A
1441,700,1,262.894,62.074,0.7,-431.765,12.794,0,0,1658.956,27.125,0,0,CAS-A
1442,700,1,262.894,62.074,0.7,-378.225,8.871,0,0,1656.688,18.986,0,0,CAS-A
1445,701,1,149.388,31.691,0.715,-521.125,6.005,0,0,1696.662,12.938,0,0,TAU-A
1446,701,1,149.388,31.691,0.715,-534.348,5.911,0,0,1708.614,12.822,0,0,TAU-A
1449,702,1,304.279,35.122,0.729,-617.48,4.929,0,0,1743.979,10.751,0,0,CYG-A
1450,702,1,304.279,35.122,0.729,-623.717,5.108,0,0,1743.949,11.264,0,0,CYG-A
1453,703,1,265.467,61.594,0.744,-290.758,9.656,0,0,1665.27,20.547,0,0,CAS-A
1454,703,1,265.467,61.594,0.744,-312.98,3.716,0,0,1683.52,7.913,0,0,CAS-A
1461,705,1,306.558,34.729,0.773,-622.096,5.115,0,0,1748.962,11.167,0,0,CYG-A
1462,705,1,306.558,34.729,0.773,-625.952,5.153,0,0,1757.45,11.205,0,0,CYG-A
1465,706,1,267.988,61.111,0.788,-431.305,7.675,0,0,1690.042,16.394,0,0,CAS-A
1466,706,1,267.988,61.111,0.788,-436.313,7.278,0,0,1703.117,15.516,0,0,CAS-A
1469,707,1,154.868,32.141,0.803,-536.668,8.512,0,0,1676.099,18.163,0,0,TAU-A
1470,707,1,154.868,32.141,0.803,-533.008,5.709,0,0,1719.759,12.439,0,0,TAU-A
1473,708,1,308.84,34.347,0.817,-547.297,5.286,0,0,1710.208,11.565,0,0,CYG-A
1474,708,1,308.84,34.347,0.817,-550.481,5.639,0,0,1707.063,12.261,0,0,CYG-A
1477,709,1,270.458,60.628,0.832,-422.52,7.031,0,0,1720.529,15.182,0,0,CAS-A
1478,709,1,270.458,60.628,0.832,-423.797,7.598,0,0,1725.87,16.299,0,0,CAS-A
1481,710,1,157.606,32.335,0.847,-602.697,4.915,0,0,1734.078,10.608,0,0,TAU-A
1482,710,1,157.606,32.335,0.847,-607.438,5.499,0,0,1711.188,11.781,0,0,TAU-A
1485,711,1,311.095,33.978,0.861,-567.785,5.672,0,0,1736.257,12.36,0,0,CYG-A
1486,711,1,311.095,33.978,0.861,-575.425,5.049,0,0,1738.918,10.99,0,0,CYG-A
1489,712,1,272.913,60.145,0.876,-411.141,8.52,0,0,1666.975,18.326,0,0,CAS-A
1490,712,1,272.913,60.145,0.876,-416.307,6.984,0,0,1680.106,14.757,0,0,CAS-A
1493,713,1,160.359,32.507,0.891,-593.774,4.806,0,0,1731.093,10.481,0,0,TAU-A
1494,713,1,160.359,32.507,0.891,-594.638,5.379,0,0,1727.817,11.56,0,0,TAU-A
1497,714,1,313.353,33.622,0.905,-556.527,4.855,0,0,1721.398,10.772,0,0,CYG-A
1498,714,1,313.353,33.622,0.905,-560.791,5.282,0,0,1733.347,11.509,0,0,CYG-A
1501,715,1,275.34,59.665,0.92,-368.525,9.295,0,0,1651.948,19.845,0,0,CAS-A
1502,715,1,275.34,59.665,0.92,-371.272,8.311,0,0,1664.202,17.979,0,0,CAS-A
1505,716,1,163.125,32.657,0.935,-517.192,6.162,0,0,1709.672,13.365,0,0,TAU-A
1506,716,1,163.125,32.657,0.935,-518.979,6.497,0,0,1725.249,13.736,0,0,TAU-A
1509,717,1,315.584,33.278,0.949,-608.981,4.903,0,0,1727.637,10.776,0,0,CYG-A
1510,717,1,315.584,33.278,0.949,-619.83,4.899,0,0,1735.589,10.844,0,0,CYG-A
1513,718,1,277.71,59.185,0.964,-367.821,9.665,0,0,1668.052,20.541,0,0,CAS-A
1514,718,1,277.71,59.185,0.964,-372.515,8.838,0,0,1681.188,18.882,0,0,CAS-A
1517,719,1,165.889,32.785,0.979,-593.817,4.797,0,0,1721.616,10.361,0,0,TAU-A
1518,719,1,165.889,32.785,0.979,-604.173,6.247,0,0,1701.522,13.609,0,0,TAU-A
1521,720,1,317.835,32.948,0.993,-548.154,5.473,0,0,1715.616,11.918,0,0,CYG-A
1522,720,1,317.835,32.948,0.993,-549.221,4.688,0,0,1718.423,10.228,0,0,CYG-A
1525,721,1,280.047,58.709,1.008,-437.644,7.656,0,0,1693.535,16.353,0,0,CAS-A
1526,721,1,280.047,58.709,1.008,-440.796,7.379,0,0,1697.018,16.315,0,0,CAS-A
1529,722,1,168.659,32.89,1.022,-503.563,5.32,0,0,1690.159,11.505,0,0,TAU-A
1530,722,1,168.659,32.89,1.022,-508.64,3.294,0,0,1683.27,7.128,0,0,TAU-A
1533,723,1,320.071,32.632,1.037,-573.638,4.715,0,0,1723.376,10.295,0,0,CYG-A
1534,723,1,320.071,32.632,1.037,-567.482,5.541,0,0,1712.879,11.256,0,0,CYG-A
1537,724,1,282.378,58.236,1.052,-367.128,8.78,0,0,1684.524,18.616,0,0,CAS-A
1538,724,1,282.378,58.236,1.052,-372.929,8.558,0,0,1685.742,18.325,0,0,CAS-A
1541,725,1,171.436,32.972,1.066,-585.356,4.826,0,0,1739.856,10.551,0,0,TAU-A
1542,725,1,171.436,32.972,1.066,-588.935,4.323,0,0,1738.265,9.459,0,0,TAU-A
1545,726,1,322.283,32.33,1.081,-582.252,4.639,0,0,1715.617,10.123,0,0,CYG-A
1546,726,1,322.283,32.33,1.081,-587.561,4.533,0,0,1720.865,9.875,0,0,CYG-A
1549,727,1,284.646,57.768,1.096,-373.432,9.492,0,0,1666.62,20.252,0,0,CAS-A
1550,727,1,284.646,57.768,1.096,-371.099,0.203,0,0,1682.808,6.528,0,0,CAS-A
1553,728,1,174.219,33.032,1.11,-494.332,6.175,0,0,1674.731,13.551,0,0,TAU-A
1554,728,1,174.219,33.032,1.11,-497.497,5.309,0,0,1701.699,11.662,0,0,TAU-A
1557,729,1,324.518,32.043,1.125,-539.685,5.251,0,0,1728.019,11.343,0,0,CYG-A
1558,729,1,324.518,32.043,1.125,-541.338,5.414,0,0,1746.234,11.679,0,0,CYG-A
1561,730,1,286.918,57.304,1.14,-368.42,9.194,0,0,1682.409,19.099,0,0,CAS-A
1562,730,1,286.918,57.304,1.14,-372.079,8.853,0,0,1680.719,19.033,0,0,CAS-A
1565,731,1,177.003,33.068,1.154,-604.6,5.234,0,0,1727.914,11.435,0,0,TAU-A
1566,731,1,177.003,33.068,1.154,-607.338,5.24,0,0,1719.181,11.44,0,0,TAU-A
1569,732,1,326.737,31.772,1.169,-625.818,5.184,0,0,1811.983,11.529,0,0,CYG-A
1570,732,1,326.737,31.772,1.169,-635.402,5.206,0,0,1820.923,11.724,0,0,CYG-A
1573,733,1,289.168,56.846,1.184,-365.181,9.221,0,0,1650.134,19.847,0,0,CAS-A
1574,733,1,289.168,56.846,1.184,-366.345,8.412,0,0,1665.034,18.544,0,0,CAS-A
1577,734,1,179.777,33.08,1.198,-573.546,4.957,0,0,1700.287,10.758,0,0,TAU-A
1578,734,1,179.777,33.08,1.198,-574.52,4.68,0,0,1716.086,10.232,0,0,TAU-A
1581,735,1,328.953,31.516,1.213,-568.135,5.551,0,0,1729.803,12.049,0,0,CYG-A
1582,735,1,328.953,31.516,1.213,-570.895,4.711,0,0,1746.001,10.394,0,0,CYG-A
1585,736,1,291.365,56.395,1.227,-362.595,8.323,0,0,1660.736,17.788,0,0,CAS-A
1586,736,1,291.365,56.395,1.227,-368.362,8.892,0,0,1655.924,18.659,0,0,CAS-A
1589,737,1,182.568,33.069,1.242,-585.925,5.188,0,0,1775.086,11.644,0,0,TAU-A
1590,737,1,182.568,33.069,1.242,-586.706,4.758,0,0,1791.792,10.402,0,0,TAU-A
1593,738,1,331.158,31.277,1.256,-633.583,4.979,0,0,1741.836,10.856,0,0,CYG-A
1594,738,1,331.158,31.277,1.256,-634.661,5.061,0,0,1758.397,11.034,0,0,CYG-A
1597,739,1,293.541,55.95,1.271,-431.769,7.744,0,0,1690.06,16.269,0,0,CAS-A
1598,739,1,293.541,55.95,1.271,-437.08,7.219,0,0,1699.607,15.647,0,0,CAS-A
1601,740,1,185.342,33.035,1.286,-533.334,5.091,0,0,1701.908,11.299,0,0,TAU-A
1602,740,1,185.342,33.035,1.286,-535.978,5.667,0,0,1700.45,12.332,0,0,TAU-A
1605,741,1,79.444,10.492,1.3,-617.106,11.578,0,0,1627.794,24.325,0,0,VIR-A
1606,741,1,79.444,10.492,1.3,-633.431,6.184,0,0,1803.651,13.821,0,0,VIR-A
1609,742,1,-25.91,30.984,1.315,-541.096,5.683,0,0,1704.695,12.489,0,0,CYG-A
1610,742,1,-25.91,30.984,1.315,-550.07,5.465,0,0,1707.846,12.058,0,0,CYG-A
1613,743,1,296.509,55.355,1.329,-446.234,6.91,0,0,1675.65,14.879,0,0,CAS-A
1614,743,1,296.509,55.355,1.329,-452.217,6.997,0,0,1675.547,14.286,0,0,CAS-A
1617,744,1,189.126,32.951,1.345,-590.795,4.716,0,0,1743.926,10.283,0,0,TAU-A
1618,744,1,189.126,32.951,1.345,-598.514,5.249,0,0,1741.856,11.486,0,0,TAU-A
1621,745,1,82.777,11.143,1.36,-580.787,6.725,0,0,1709.587,13.966,0,0,VIR-A
1622,745,1,82.777,11.143,1.36,-615.357,7.74,0,0,1687.422,16.612,0,0,VIR-A
1625,746,1,-22.899,30.714,1.375,-580.501,4.636,0,0,1728.287,10.09,0,0,CYG-A
1626,746,1,-22.899,30.714,1.375,-584.791,4.717,0,0,1744.703,10.402,0,0,CYG-A
1629,747,1,299.43,54.774,1.389,-462.411,7.511,0,0,1699.083,16.077,0,0,CAS-A
1630,747,1,299.43,54.774,1.389,-465.988,7.319,0,0,1701.931,15.811,0,0,CAS-A
1633,748,1,192.916,32.824,1.405,-618.781,3.887,0,0,1725.277,8.544,0,0,TAU-A
1634,748,1,192.916,32.824,1.405,-624.566,4.912,0,0,1718.371,11.072,0,0,TAU-A
1637,749,1,86.146,11.799,1.42,-569.65,50.66,0,0,1762.757,111.016,0,0,VIR-A
1638,749,1,86.146,11.799,1.42,-650.578,21.041,0,0,1518.189,43.099,0,0,VIR-A
1641,750,1,-19.902,30.474,1.435,-608.364,5.065,0,0,1727.519,11.184,0,0,CYG-A
1642,750,1,-19.902,30.474,1.435,-612.09,4.855,0,0,1736.393,10.647,0,0,CYG-A
1645,751,1,-57.667,54.21,1.449,-454.407,7.024,0,0,1679.219,15.085,0,0,CAS-A
1646,751,1,-57.667,54.21,1.449,-457.201,6.74,0,0,1687.365,14.429,0,0,CAS-A
1649,752,1,196.754,32.651,1.465,-599.846,5.055,0,0,1726.762,10.851,0,0,TAU-A
1650,752,1,196.754,32.651,1.465,-597.636,4.335,0,0,1745.509,9.511,0,0,TAU-A
1653,753,1,89.565,12.468,1.481,-553.323,8.484,0,0,1663.459,18.073,0,0,VIR-A
1654,753,1,89.565,12.468,1.481,-603.701,5.941,0,0,1701.126,12.785,0,0,VIR-A
1657,754,1,-16.84,30.264,1.496,-527.978,5.695,0,0,1695.125,12.313,0,0,CYG-A
1658,754,1,-16.84,30.264,1.496,-532.809,5.577,0,0,1714.511,12.16,0,0,CYG-A
1661,755,1,-54.745,53.654,1.51,-375.851,8.848,0,0,1685.957,18.932,0,0,CAS-A
1662,755,1,-54.745,53.654,1.51,-378.371,8.482,0,0,1690.796,18.175,0,0,CAS-A
1665,756,1,200.588,32.435,1.526,-579.04,5.033,0,0,1757.12,11.219,0,0,TAU-A
1666,756,1,200.588,32.435,1.526,-594.478,5.7,0,0,1706.542,12.292,0,0,TAU-A
1669,757,1,93.009,13.138,1.542,-631.525,9.588,0,0,1832.248,21.269,0,0,VIR-A
1670,757,1,93.009,13.138,1.542,-686.889,8.945,0,0,1697.688,19.326,0,0,VIR-A
1673,758,1,-13.782,30.089,1.557,-558.184,5.411,0,0,1713.645,11.727,0,0,CYG-A
1674,758,1,-13.782,30.089,1.557,-552.853,4.413,0,0,1738.016,9.64,0,0,CYG-A
1677,759,1,-51.87,53.119,1.571,-464.049,6.861,0,0,1706.099,14.716,0,0,CAS-A
1678,759,1,-51.87,53.119,1.571,-467.798,6.947,0,0,1704.137,14.764,0,0,CAS-A
1681,760,1,204.403,32.178,1.587,-556.759,4.52,0,0,1711.852,9.856,0,0,TAU-A
1682,760,1,204.403,32.178,1.587,-572.62,4.459,0,0,1717.031,7.952,0,0,TAU-A
1685,761,1,96.426,13.805,1.603,-664.072,7.33,0,0,1733.054,15.527,0,0,VIR-A
1686,761,1,96.426,13.805,1.603,-685.782,5.89,0,0,1767.681,12.531,0,0,VIR-A
1689,762,1,-10.734,29.948,1.617,-550.622,5.881,0,0,1695.949,12.757,0,0,CYG-A
1690,762,1,-10.734,29.948,1.617,-554.052,3.863,0,0,1715.807,8.428,0,0,CYG-A
1693,763,1,-49.004,52.604,1.632,-474.326,6.893,0,0,1706.704,14.863,0,0,CAS-A
1694,763,1,-49.004,52.604,1.632,-480.004,6.931,0,0,1710.137,14.878,0,0,CAS-A
1697,764,1,208.212,31.88,1.648,-620.825,4.994,0,0,1733.301,10.882,0,0,TAU-A
1698,764,1,208.212,31.88,1.648,-622.866,4.465,0,0,1729.686,9.841,0,0,TAU-A
1701,765,1,99.882,14.468,1.664,-682.301,5.934,0,0,1705.281,12.822,0,0,VIR-A
1702,765,1,99.882,14.468,1.664,-679.132,8.452,0,0,1678.404,17.983,0,0,VIR-A
1705,766,1,-7.685,29.842,1.678,-558.604,4.551,0,0,1707.344,9.946,0,0,CYG-A
1706,766,1,-7.685,29.842,1.678,-563.198,5.056,0,0,1716.515,10.957,0,0,CYG-A
1709,767,1,-46.162,52.111,1.693,-472.979,7.041,0,0,1697.138,15.01,0,0,CAS-A
1710,767,1,-46.162,52.111,1.693,-478.505,7.252,0,0,1699.679,15.451,0,0,CAS-A
1713,768,1,211.991,31.543,1.709,-595.456,5.2,0,0,1709.2,11.433,0,0,TAU-A
1714,768,1,211.991,31.543,1.709,-605.468,4.675,0,0,1711.389,10.148,0,0,TAU-A
